// Jest Snapshot v1, https://goo.gl/fbAQLP

exports[`test NotFound page renders correctly 1`] = `
<div
  className="page-no-found"
>
  <h2>
    Nothing to see here!
  </h2>
  <p>
    <a
      href="/"
      onClick={[Function]}
    >
      Go to the home page
    </a>
  </p>
</div>
`;
